timestamp,latitude,longitude,altitude,accuracy,bearing,speed,provider
1627571060542,52.4686391,13.3336589,95.11899962774578,14.289,0.0,0.0,fused
1627542011395,52.4684819,13.3335601,108.70401585225174,11.619,242.0,0.69,fused
1627542012608,52.4685233,13.3336119,108.34610425884637,12.38,39.471157,0.2870483,fused
1627542013605,52.4685242,13.3336196,110.57893322203996,11.362,58.74884,0.34952858,fused
1627542015625,52.4685202,13.3336401,102.75208629149051,9.844,312.32812,0.14458545,fused
1627542017636,52.4685156,13.3336093,97.13960184243325,6.825,278.80585,0.36770165,fused
1627542019614,52.4685138,13.3336118,96.16767410311942,6.044,140.98347,0.48634517,fused
1627542021614,52.4685033,13.3336179,92.48866473300299,5.463,158.13388,0.7573231,fused
1627542022647,52.4684955,13.3336274,91.84918732089953,5.03,125.42634,1.4868181,fused
1627542024531,52.4684898,13.3336378,90.77012020133742,8.994,219.45656,1.2562796,fused
1627542025613,52.4685002,13.333634,91.4094351599295,9.692,267.0223,1.2106867,fused
1627542026812,52.4685119,13.3336415,91.14285108738044,10.737,19.796463,0.5224771,fused
1627542027927,52.468518,13.3336683,90.01682908731563,12.46,95.3517,1.271102,fused
1627542029041,52.4685177,13.3337235,89.79518262409468,11.943,103.09726,1.4073967,fused
1627542030163,52.4685165,13.333774,89.30762153858784,12.678,110.80718,1.5089829,fused
1627542031256,52.4685142,13.3338218,88.73642895180855,12.934,113.83821,1.3880026,fused
1627542032453,52.4685098,13.3338713,88.61422236410013,12.502,117.9294,1.2778343,fused
1627542033590,52.4685064,13.3339047,90.32020642716869,11.304,120.088875,1.3001997,fused
1627542034623,52.4685016,13.3339396,89.1970625211114,9.782,117.1945,1.3277225,fused
1627542036442,52.4684923,13.3339748,88.99286444919811,8.445,122.381325,1.2774748,fused
1627542037529,52.4684851,13.3339948,90.5363641987982,7.96,123.605965,1.2879367,fused
1627542038619,52.4684432,13.3339438,90.4047462730962,7.019,127.51232,1.2800617,fused
1627542039618,52.4684218,13.3339308,90.72192797844205,6.442,125.302895,1.2667714,fused
1627542040634,52.4684158,13.3339386,90.4041037061429,5.872,122.26131,1.2684326,fused
1627542042653,52.4684061,13.3339617,89.58626802680853,4.687,124.619965,0.98721987,fused
1627542044613,52.4683987,13.3339961,90.05221550399968,4.632,117.11272,1.3644832,fused
1627542045623,52.4683941,13.3340182,90.32967695780621,4.566,121.0408,0.7646046,fused
1627542047633,52.4683863,13.3340398,89.63844216919455,4.398,132.0589,1.0750914,fused
1627542049614,52.4683769,13.3340758,91.32743504180812,4.214,125.08818,1.2416455,fused
1627542051641,52.4683682,13.3340991,90.2986817910038,4.144,141.90198,1.0532544,fused
1627542052647,52.4683599,13.3341112,89.96606437254852,4.105,144.26202,1.0865824,fused
1627542054625,52.4683477,13.3341373,89.0442706256182,3.955,128.26512,1.0985625,fused
1627542055622,52.4683445,13.3341487,89.25585143780182,3.88,126.95622,1.1496868,fused
1627542056633,52.4683402,13.3341633,89.44267025460549,3.828,128.03029,1.1839716,fused
1627542057659,52.468334,13.3341833,89.83269134411073,3.808,121.991035,1.2783829,fused
1627542059619,52.4683242,13.3342246,89.53184237632101,3.848,115.66423,1.197951,fused
1627542060622,52.4683184,13.3342432,89.6621735661684,3.886,112.60369,1.2403877,fused
1627542062639,52.4683083,13.3342789,90.65860117264883,3.972,115.7195,1.2598137,fused
1627542064609,52.4682967,13.3343204,91.25387400862924,4.053,123.4225,1.4107805,fused
1627542066632,52.4682821,13.3343521,90.96862499239043,4.067,133.12363,1.4168818,fused
1627542067624,52.4682739,13.3343637,90.89547671435692,4.075,135.98581,1.2927946,fused
1627542069628,52.4682592,13.3343945,89.88430006417393,4.068,125.98681,1.1532348,fused
1627542071631,52.4682509,13.3344161,89.7925620945054,4.022,129.71,1.1440364,fused
1627542072662,52.4682439,13.3344301,89.3942945345878,4.019,130.19989,1.1591322,fused
1627542074644,52.4682351,13.334464,90.45824163084042,4.094,111.7849,1.240573,fused
1627542076623,52.4682297,13.3345063,89.46675797742422,4.228,111.78543,1.2501453,fused
1627542077655,52.468225,13.3345226,90.25916563237628,4.287,117.14892,1.3332607,fused
1627542079620,52.468212,13.3345611,91.36068680609777,4.422,123.64767,1.2643757,fused
1627542081621,52.4682004,13.334584,91.69712885863838,4.569,130.22734,1.2046142,fused
1627542082641,52.4681932,13.3345944,91.44925257674966,4.644,131.97267,1.2346753,fused
1627542084617,52.46818,13.3346299,92.10700896280956,4.695,113.13689,1.2582409,fused
1627542085634,52.4681763,13.3346488,91.00962364044787,4.689,114.443085,1.3087829,fused
1627542087668,52.4681684,13.33469,91.71444485184463,4.531,106.398544,1.425366,fused
1627542089622,52.4681539,13.3347387,90.75805048143108,4.446,117.0094,1.3675965,fused
1627542090613,52.4681471,13.3347502,90.0411034271468,4.406,115.817764,1.3126887,fused
1627542092669,52.4681344,13.3347832,89.68168267172999,4.536,117.020744,1.2331277,fused
1627542094611,52.4681163,13.3348091,90.59747556963374,4.601,114.50996,1.2699656,fused
1627542095612,52.468108,13.3348246,90.15920761775371,4.66,114.91371,1.2451105,fused
1627542097700,52.4680962,13.3348537,91.26432122456383,4.527,121.772896,1.08745,fused
1627542099630,52.4680911,13.3349036,91.97811399270607,4.375,109.67527,1.095156,fused
1627542100644,52.4680953,13.3349231,91.57074901863868,4.279,96.01244,1.0564818,fused
1627542102618,52.468111,13.3349656,92.0546460552377,4.218,65.433586,1.1727586,fused
1627542104609,52.4681321,13.3350085,91.72324208206427,4.372,64.50728,1.1238385,fused
1627542105620,52.4681427,13.3350292,92.05520164530915,4.466,46.89392,1.2732378,fused
1627542106640,52.4681558,13.3350469,89.99852240617082,4.685,43.434074,1.1377081,fused
1627542108637,52.468176,13.3350764,91.62623171492079,4.939,43.58076,1.3175004,fused
1627542110635,52.4681969,13.3351093,90.35151489610533,4.851,41.376007,1.148552,fused
1627542112672,52.4682113,13.3351426,90.1450543337759,4.531,37.025024,1.2150713,fused
1627542114608,52.4682326,13.3351738,88.7101740326165,4.246,15.745465,1.187292,fused
1627542115633,52.4682429,13.3351812,87.74684840527999,4.198,9.554458,1.1604738,fused
1627542116632,52.4682544,13.3351882,86.25059176859516,4.155,16.021523,1.1523157,fused
1627542118618,52.4682741,13.3352054,83.39868000660579,4.198,23.780092,1.1708398,fused
1627542119618,52.4682826,13.3352155,81.67668624300629,4.213,21.228735,1.1718333,fused
1627542121617,52.4683011,13.3352338,81.89432589403431,4.276,9.162435,1.0402889,fused
1627542122652,52.4683086,13.3352417,81.65304714202401,4.308,6.378895,1.0474641,fused
1627542124610,52.4683257,13.3352491,82.93159934927111,4.297,344.233,1.0079944,fused
1627542125645,52.4683341,13.3352518,82.54597072427595,4.3,7.8646283,1.2796327,fused
1627542127700,52.468351,13.335276,82.75119328406714,4.277,32.074432,1.0474977,fused
1627542129615,52.4683648,13.3353067,83.24774996272248,4.708,42.60035,1.0347703,fused
1627542131611,52.4683771,13.3353366,85.06815144742876,5.462,31.436094,0.9062954,fused
1627542132652,52.4683845,13.3353488,84.79000226141987,5.977,32.680256,1.1682342,fused
1627542134607,52.4684026,13.3353786,86.89619773948556,6.036,11.496415,1.4451021,fused
1627542135638,52.4684149,13.3353884,87.18009261561467,5.818,8.601547,1.4461517,fused
1627542137637,52.4684488,13.3353971,89.8374461773598,5.05,7.679736,1.2893345,fused
1627542139619,52.4684793,13.3353901,89.32898979083693,4.674,1.5821854,1.3369988,fused
1627542140638,52.4684931,13.3353904,89.9380585850366,4.62,16.575842,1.0516989,fused
1627542141618,52.4685055,13.3353933,89.53278352974961,4.599,9.424333,1.0866389,fused
1627542142640,52.4685237,13.3353901,89.06175439193859,4.551,345.38715,1.2389686,fused
1627542144621,52.468557,13.3353857,89.07663369207079,4.327,12.344725,1.2076439,fused
1627542145636,52.4685707,13.3353856,89.8261995871551,4.143,3.9057007,1.2063406,fused
1627542147618,52.4685901,13.3353751,86.6917288073548,4.033,356.396,1.0470027,fused
1627542149632,52.4686095,13.3353622,89.17199749618497,4.081,355.39542,1.25571,fused
1627542150615,52.4686228,13.3353581,90.03944365029527,4.107,357.9602,1.2929338,fused
1627542152664,52.4686562,13.3353436,90.46311093122148,4.081,346.50342,1.4797217,fused
1627542154612,52.4686833,13.335335,89.92348885276846,3.898,358.03842,1.3939457,fused
1627542155632,52.4686978,13.3353293,90.82589591011907,3.86,359.4988,1.4276603,fused
1627542157656,52.4687242,13.3353301,89.5522517382817,3.817,11.554475,1.1318078,fused
1627542159642,52.4687442,13.3353336,87.16669113184147,3.808,16.196232,1.1750356,fused
1627542160625,52.4687529,13.3353438,86.99124070966211,3.808,21.372183,1.2499791,fused
1627542161628,52.4687611,13.3353565,87.77114080406277,3.822,33.00511,1.3028365,fused
1627542163607,52.4687784,13.3353815,88.1195476778563,4.041,35.41914,1.3059057,fused
1627542165637,52.4688007,13.335391,89.15955705716304,5.557,17.627344,1.2643508,fused
1627542167708,52.4688294,13.3353817,88.50308800039669,8.576,3.5219438,1.2408775,fused
1627542169621,52.4688582,13.3353779,90.13648936118054,10.406,8.917832,1.2594019,fused
1627542170666,52.4688697,13.335385,92.97661167905831,10.777,11.015963,1.2630447,fused
1627542172635,52.4688841,13.3354032,90.29748398104135,10.684,14.833789,0.9633455,fused
1627542174640,52.4688965,13.335403,91.05540477347755,10.654,3.1790097,1.0850703,fused
1627542176618,52.468908,13.335384,89.65153578721042,10.598,308.0597,0.8671459,fused
1627542177668,52.4689134,13.3353705,92.5305777699234,10.572,328.361,0.8671228,fused
1627542179653,52.4689446,13.3353488,94.38142591174449,10.479,355.12497,1.2275743,fused
1627542181610,52.4689792,13.3353402,92.67690915418574,10.356,353.836,1.2600802,fused
1627542182653,52.4689975,13.3353333,92.96236709759968,10.298,344.11923,1.3345106,fused
1627542184631,52.4690343,13.3353226,92.92936600342212,10.258,358.2877,1.3167267,fused
1627542186631,52.4690618,13.3353249,92.23095948542046,10.306,0.7586305,1.1629661,fused
1627542187662,52.4690744,13.335326,90.9361987087315,10.33,357.68335,1.0801202,fused
1627542188890,52.4690901,13.3353255,91.59873019448342,10.242,354.83673,1.1426457,fused
1627542189941,52.4691048,13.3353246,93.74522379007124,10.106,356.41284,1.1754054,fused
1627542191071,52.4691288,13.3353082,93.4739159139773,9.799,356.15884,1.3112081,fused
1627542192191,52.4691503,13.3353022,93.75815253154337,11.353,358.0156,1.4830046,fused
1627542193371,52.4691688,13.3353095,93.27886384946653,17.396,2.0893438,1.5290024,fused
1627542194489,52.469187,13.3353158,94.47760528615203,23.12,1.6760126,1.5076255,fused
1627542195574,52.4692029,13.3353149,94.67003539286665,28.04,357.30887,1.4657961,fused
1627542196618,52.4692185,13.3353156,93.55043813327157,30.687,351.7979,1.4019186,fused
1627542197633,52.4692303,13.3353086,92.55158186546896,29.377,346.0283,1.3386194,fused
1627542199526,52.4692458,13.3352775,91.56247127565706,18.791,334.9892,1.2760189,fused
1627542200634,52.4692517,13.3352521,90.39637245799982,10.179,327.00165,1.2229418,fused
1627542201767,52.4692605,13.3351976,91.67291575829464,8.091,309.6293,1.039722,fused
1627542202881,52.4692624,13.3351746,93.77964690210408,7.106,297.6291,0.9975752,fused
1627542203914,52.4692625,13.3351501,93.64494423640679,6.503,286.36713,1.0087711,fused
1627542205086,52.4692608,13.3351239,94.4820382456795,5.712,276.92783,1.0518231,fused
1627542206120,52.4692585,13.3350985,97.21139948030677,5.408,269.5161,1.082108,fused
1627542207247,52.4692564,13.3350533,96.31396676999557,5.228,266.01477,1.1174848,fused
1627542208383,52.4692528,13.335025,97.14839175964931,5.321,262.5358,1.1487437,fused
1627542209544,52.4692482,13.3349984,97.20855930106595,5.525,260.34787,1.1754732,fused
1627542210644,52.469245,13.3349768,97.6265685728244,5.736,259.1621,1.2047043,fused
1627542212300,52.4692386,13.3349236,97.82686192635921,6.258,258.415,1.2638938,fused
1627542213393,52.4692353,13.3348981,97.46725376934029,6.413,258.5304,1.2854003,fused
1627542214508,52.4692345,13.3348757,98.07013006251539,6.507,259.02893,1.286401,fused
1627542215629,52.4692317,13.3348545,98.44024357299328,6.629,258.89868,1.2948904,fused
1627542216709,52.469226,13.3348297,98.53145114691523,6.64,258.47937,1.3067766,fused
1627542217828,52.4692221,13.3348079,99.19768346353632,6.62,258.11847,1.313151,fused
1627542218910,52.4692177,13.3347897,97.70460224706807,6.653,257.3196,1.3304607,fused
1627542220040,52.4692133,13.3347715,97.8456011339763,6.772,256.82153,1.329718,fused
1627542221200,52.4692094,13.3347537,98.4574326005924,6.927,256.59042,1.332921,fused
1627542222220,52.4692071,13.3347259,97.2036291272316,7.056,256.73056,1.344151,fused
1627542223480,52.4692039,13.3347052,96.5819650931734,7.213,257.01227,1.3166624,fused
1627542224608,52.4692015,13.3346901,99.68558584270208,7.266,256.77344,1.2760794,fused
1627542225670,52.4692011,13.3346833,100.21014293078649,7.222,257.19724,1.1833994,fused
1627542227405,52.4691991,13.3346563,102.15396343155926,7.198,257.251,1.1468047,fused
1627542228572,52.469198,13.3346395,102.68736812650091,7.184,258.12366,1.1483208,fused
1627542229615,52.469193,13.3346192,103.36846899255083,7.148,257.80075,1.1959494,fused
1627542230792,52.4691875,13.3345978,103.84563717063935,7.207,256.46475,1.2402856,fused
1627542231867,52.469185,13.3345753,103.69723200104367,7.292,257.0622,1.2847165,fused
1627542233018,52.469185,13.3345589,103.71862582321185,7.279,257.77612,1.1853671,fused
1627542234115,52.469182,13.3345377,103.02819992259786,7.367,258.01434,1.0348448,fused
1627542235269,52.4691774,13.3345133,101.99670275994467,7.477,258.39908,0.91138476,fused
1627542236404,52.4691723,13.3344867,103.0032799909064,7.593,258.11087,1.2698461,fused
1627542237530,52.4691698,13.3344562,102.78434355311373,7.677,258.75708,1.3565495,fused
1627542238648,52.4691683,13.3344362,100.70399377689682,7.685,259.39417,1.2421274,fused
1627542239613,52.4691667,13.3344184,100.83809261710311,7.687,257.909,1.1964437,fused
1627542240646,52.4691644,13.3344026,101.56434837946915,7.613,258.18634,1.2165399,fused
1627542242079,52.4691608,13.334375,102.58305310993083,7.407,256.3555,1.1907248,fused
1627542243205,52.4691592,13.3343638,103.9408471098186,7.379,257.26935,1.4686142,fused
1627542244314,52.4691563,13.3343454,102.11890899140217,7.373,256.61,1.4808569,fused
1627542245468,52.4691526,13.3343275,103.65124869232436,7.396,256.48178,1.2714003,fused
1627542246572,52.4691503,13.3343152,107.1228810192179,7.36,256.19144,1.2243509,fused
1627542248275,52.4691415,13.3342781,107.29414384133717,7.403,257.53986,1.4465283,fused
1627542249391,52.4691377,13.3342611,107.4070530676739,7.399,257.51776,1.4217535,fused
1627542250426,52.469134,13.3342443,109.45575518116063,7.424,257.16522,1.315704,fused
1627542252105,52.4691281,13.3342118,107.47685663387718,7.638,256.83685,1.4178663,fused
1627542253357,52.4691252,13.3341837,106.63923486273079,7.807,255.99222,1.3982165,fused
1627542254435,52.4691229,13.3341642,107.97702667168699,7.935,256.60196,1.2961736,fused
1627542255489,52.4691216,13.3341494,108.5400746294001,8.032,256.34677,1.2357187,fused
1627542257138,52.4691159,13.3341069,109.00648331098273,8.181,256.11606,1.4220649,fused
1627542258357,52.4691074,13.3340664,109.6154910325101,8.192,261.7724,0.67498696,fused
1627542259436,52.4691034,13.3340494,110.1403863581637,8.21,255.94461,0.7645311,fused
1627542260578,52.4690992,13.3340271,110.9586105564786,8.233,257.15054,1.6415626,fused
1627542261647,52.4691015,13.334009,110.79782513912512,10.224,244.84564,1.51208,fused
1627542263347,52.4691111,13.3339719,110.77956811032779,19.356,260.91852,1.4104242,fused
1627542264499,52.4691118,13.3339632,113.285444271085,21.539,265.23022,1.1847278,fused
1627542265623,52.4691055,13.3339537,113.66419720055877,22.818,264.66058,1.1004208,fused
1627542266764,52.4690881,13.3339468,113.77687026143634,21.254,262.96112,1.1302274,fused
1627542267926,52.4690754,13.333935,112.19941736618084,13.908,261.57672,1.1438463,fused
1627542269068,52.4690656,13.3339207,112.66296797463347,13.134,260.42197,1.1603076,fused
1627542270212,52.4690592,13.3338876,112.96946241309928,12.189,259.75153,1.198884,fused
1627542271682,52.4690573,13.3338522,114.45886352819316,11.273,259.58508,1.2023709,fused
1627542273095,52.4690564,13.33383,112.21506824222091,10.36,267.0037,0.95599943,fused
1627542274269,52.4690535,13.3338099,112.88038789085367,9.614,267.41382,0.8560006,fused
1627542275362,52.4690497,13.3337774,112.6496370001135,9.182,265.09146,0.97986215,fused
1627542276497,52.4690495,13.3337509,111.78627794567906,11.46,266.33698,1.1176957,fused
1627542277661,52.4690553,13.3337354,112.42258367103956,19.454,270.07053,1.135078,fused
1627542279365,52.469066,13.3337264,113.3520368348064,29.77,266.59863,1.1523199,fused
1627542280508,52.4690705,13.3337189,112.2602106873174,30.305,264.91754,1.1890137,fused
1627542281646,52.4690696,13.3337014,111.1644698496854,32.872,261.17374,1.2843744,fused
1627542282625,52.4690687,13.3336863,111.62587961867932,32.953,255.05766,1.3057373,fused
1627542283973,52.4690694,13.3336695,111.07407217588985,32.582,254.51184,1.2736024,fused
1627542285052,52.4690719,13.3336603,111.56329299117274,36.188,257.62878,1.237427,fused
1627542286221,52.4690637,13.3336429,111.90853420354219,35.042,258.95807,1.2045815,fused
1627542287338,52.4690463,13.3336232,111.78023845853558,29.053,259.1154,1.1812255,fused
1627542288489,52.4690294,13.33361,111.63224776999276,22.674,258.10324,1.1850944,fused
1627542289620,52.4690189,13.3335965,110.67071174627597,16.859,256.4202,1.1681281,fused
1627542291405,52.4690052,13.3335517,112.36153729235632,11.035,254.40794,1.1626906,fused
1627542292530,52.4690004,13.3335311,112.2720592167856,10.923,254.38959,1.0962069,fused
1627542293622,52.4689958,13.3335122,111.47984833810914,11.348,253.8578,1.070501,fused
1627542294863,52.4689911,13.3334991,110.56705445888869,11.802,253.90671,1.0604874,fused
1627542296566,52.4689832,13.3334663,110.21582259542984,11.818,254.12366,1.0791146,fused
1627542297632,52.4689776,13.3334365,109.00986849854851,11.548,254.7381,1.1168344,fused
1627542298795,52.4689745,13.3334211,108.41844484801602,10.872,256.24304,1.1863464,fused
1627542299930,52.4689735,13.3334162,109.06358228384627,10.374,257.77567,1.2078449,fused
1627542301101,52.4689712,13.3333988,106.960596309358,9.613,259.78165,1.1833175,fused
1627542302308,52.4689688,13.3333842,105.38643276389877,8.91,259.85248,1.2009035,fused
1627542303439,52.4689667,13.3333734,102.09956816492713,8.251,259.66696,1.2425529,fused
1627542304510,52.4689647,13.3333643,99.5337727987447,7.695,257.7405,1.2438239,fused
1627542305646,52.4689626,13.3333544,98.98351041576773,7.08,254.3307,1.2339333,fused
1627542307375,52.4689529,13.3333255,96.02754788801478,7.637,248.63495,1.1972834,fused
1627542308548,52.4689438,13.3333169,94.12497336560372,8.139,238.60036,1.0891243,fused
1627542309624,52.4689318,13.3333081,92.5330627214555,8.862,227.40767,1.0258183,fused
1627542310866,52.4688978,13.3332792,90.9731288565586,9.976,213.18005,1.0624034,fused
1627542311975,52.4688694,13.3332585,92.11233150229724,10.047,206.94756,1.0435005,fused
1627542313102,52.4688466,13.3332555,92.70692792127929,10.073,191.45679,1.0042527,fused
1627542314302,52.4688254,13.333265,91.78770138595948,9.977,179.18205,0.9797799,fused
1627542315390,52.4688069,13.3332865,92.97383819386587,9.574,168.4476,0.96771824,fused
1627542316607,52.4687832,13.3333152,92.09836212823335,9.804,162.073,0.9819537,fused
1627542318259,52.4687627,13.3333541,91.76181143659835,10.102,152.5056,0.9949682,fused
1627542319353,52.4687517,13.3333788,90.97873983496495,10.326,147.44595,0.9980195,fused
1627542320514,52.4687427,13.3334028,91.84446275717549,10.554,141.68117,1.0090107,fused
1627542321637,52.4687304,13.3334342,90.72915884435416,10.838,137.77711,1.0398717,fused
1627542322647,52.4687241,13.3334538,92.32833343320257,11.141,134.99902,1.0572639,fused
1627542323918,52.4687176,13.3334801,93.0716812852435,11.445,131.36653,1.113355,fused
1627542325067,52.4687173,13.3334904,95.98904160245108,11.525,129.91507,1.136756,fused
1627542326220,52.4687139,13.3335054,95.51255034162664,11.736,129.2634,1.1499791,fused
1627542327364,52.4687093,13.3335235,95.78142691434383,12.195,128.30223,1.1713997,fused
1627542328514,52.4687097,13.3335048,95.97464250935981,12.219,246.74962,0.10268692,fused
1627542329610,52.4687032,13.3335226,96.62431360645662,12.004,125.69416,1.187236,fused
1627542331378,52.468696,13.3335422,96.59297736417173,11.488,125.80565,1.2081764,fused
1627542332592,52.4686944,13.3335485,95.98825010144282,10.915,124.76178,1.1860166,fused
1627542333636,52.468692,13.3335585,95.5622905766378,10.91,123.983055,1.1901885,fused
1627542335374,52.4686867,13.333579,97.72055256248363,11.121,123.765205,1.1565334,fused
1627542336595,52.4686856,13.3335854,97.26495984208623,11.215,124.04905,1.1282201,fused
1627542337627,52.4686891,13.3335807,96.61260475315255,11.056,123.95396,1.1144168,fused
1627542338631,52.4686881,13.3335867,95.52223861730371,10.821,123.92204,1.1108056,fused
1627542339624,52.4686855,13.3335968,94.02602703403244,10.57,124.07886,1.1110507,fused
1627542341642,52.4686739,13.3336275,93.89584977617508,9.891,124.44364,1.222953,fused
1627542342955,52.4686622,13.3336548,94.19499251227138,10.051,123.658485,1.1703136,fused
1627542344042,52.4686562,13.3336725,94.83984539165232,10.207,122.66006,1.0854542,fused
1627542345284,52.4686499,13.3336927,95.60019945148656,10.527,121.83213,1.035003,fused
1627542346655,52.4686365,13.3337291,92.4187098217218,11.031,122.64739,1.0961555,fused
