timestamp,latitude,longitude,altitude,accuracy,bearing,speed,provider
1627975407188,52.4686559,13.3336213,103.53504838802996,14.243,0.0,0.0,fused
1627975407299,52.4686291,13.3336345,103.53504838802996,27.767,273.84326,0.0,fused
1627975409748,52.4686065,13.3336605,115.64536671829491,14.257,218.7687,0.0,fused
1627975411393,52.4686036,13.3336577,96.30754752167014,14.286,177.11125,0.19172539,fused
1627975413045,52.468605,13.3336521,101.2991667324352,13.644,152.69759,0.019723928,fused
1627975414029,52.4686064,13.3336422,100.71210871302388,11.888,12.054434,0.015067859,fused
1627975415034,52.4686059,13.3336369,102.66863100567032,10.74,5.6498275,0.012775029,fused
1627975416044,52.4686042,13.3336331,101.35285714969417,9.504,357.75735,0.010147031,fused
1627975418028,52.4685585,13.3335723,99.00593604639327,6.884,226.65714,0.02539169,fused
1627975419039,52.4685564,13.3335728,98.0057962596319,5.717,205.76028,0.009321629,fused
1627975420031,52.4685612,13.3335785,96.27160204045171,5.078,57.32338,0.041376494,fused
1627975421041,52.4685649,13.3335862,97.0546986170316,4.486,57.625072,0.047659338,fused
1627975422089,52.4685721,13.3335909,97.83426123851388,3.978,41.834904,0.06386847,fused
1627975423069,52.4685772,13.3335958,97.81055447143629,3.932,41.082134,0.06995978,fused
1627975425038,52.4685874,13.3336072,95.10463107109403,3.872,12.152153,0.10894562,fused
1627975427095,52.4685925,13.3336261,95.47176600625438,3.832,357.98895,0.45430943,fused
1627975429031,52.468592,13.3336308,95.02789506707208,3.828,357.93286,0.5877443,fused
1627975430033,52.4685898,13.3336354,95.18368557859587,3.807,358.0311,0.4936166,fused
1627975431042,52.4685875,13.3336403,95.39971550340071,3.81,357.06445,0.41321588,fused
1627975432038,52.4685846,13.3336447,94.96083237780576,3.894,357.52145,0.35763207,fused
1627975434029,52.468567,13.3336585,93.77980396773147,4.212,353.1013,0.14976515,fused
1627975436048,52.4685636,13.3336591,93.2838494856811,4.403,351.04645,0.15075782,fused
1627975438046,52.4685568,13.3336568,92.73960437384169,4.528,205.25113,0.15552399,fused
1627975439037,52.4685495,13.3336518,92.4302132911955,4.731,203.21318,0.5228492,fused
1627975441056,52.4685329,13.3336277,93.51544266596734,5.333,220.51697,1.1033556,fused
1627975443044,52.4685321,13.3336083,95.33788305198188,5.862,349.1974,0.37882683,fused
1627975444046,52.4685343,13.3336025,95.82811119448694,6.158,348.33862,0.37148598,fused
1627975446041,52.4685476,13.3336039,96.31825099027789,6.525,349.54453,1.105376,fused
1627975448037,52.4685459,13.3336072,95.9281199934014,6.992,358.03827,0.2505046,fused
1627975449072,52.4685421,13.3336044,96.64347046014741,7.157,237.82733,0.11007594,fused
1627975451029,52.4685574,13.3335887,95.4556650334977,7.612,355.3656,2.337425,fused
1627975452032,52.4685617,13.333587,95.5516596300031,8.318,355.22272,2.2073863,fused
1627975454030,52.4685491,13.3335999,95.18685810727233,8.779,353.4398,0.53213036,fused
1627975455043,52.4685477,13.3336057,95.71666897993447,8.742,353.91168,0.5015461,fused
1627975456038,52.4685461,13.3336156,94.68987276042758,8.425,72.204445,0.48689413,fused
1627975458029,52.4685434,13.3336425,93.48134038597347,7.09,100.38971,0.83909214,fused
1627975460070,52.4685312,13.3336651,93.95424917572677,6.313,27.052689,0.5114627,fused
1627975461202,52.4685295,13.3336747,94.43532341901559,6.743,154.83046,0.5554102,fused
1627975462489,52.4685383,13.3336837,93.63804713333164,8.493,308.1792,0.8138354,fused
1627975463760,52.4685525,13.333699,94.08468159521149,9.691,19.476025,0.82609886,fused
1627975465062,52.4685607,13.3337201,94.40462534375564,11.362,347.70175,1.068974,fused
1627975466271,52.4685567,13.333742,94.79018273458348,12.14,113.04208,1.0003564,fused
1627975468022,52.4685284,13.3338041,94.75508871613617,11.79,123.191345,1.106654,fused
1627975469037,52.4685111,13.3338376,94.49326543976903,11.116,123.05583,1.1017225,fused
1627975470573,52.4685008,13.3338539,94.33749842048502,10.014,123.08913,1.1723676,fused
1627975471802,52.4684913,13.3338743,93.99062645824385,8.981,122.69404,1.0983578,fused
1627975473031,52.4684647,13.3338672,93.98584563575373,7.181,112.579124,1.1778954,fused
1627975474064,52.4684544,13.3338779,94.35424139620852,5.865,125.61617,1.180726,fused
1627975476035,52.4684449,13.3339045,94.39424551407888,4.548,128.9837,1.155568,fused
1627975478037,52.4684383,13.3339373,94.38041412255542,3.79,123.80432,1.1424894,fused
1627975479043,52.4684361,13.3339565,94.2700674767685,3.79,122.54351,1.1728088,fused
1627975481039,52.4684296,13.33399,94.66606015984189,3.79,126.25261,1.1823381,fused
1627975482041,52.4684255,13.3340058,94.16965118438489,3.79,134.36197,1.199623,fused
1627975484041,52.468414,13.3340409,94.20379785437132,3.79,122.88923,1.1876101,fused
1627975486072,52.468411,13.3340722,94.68117064597293,3.797,128.77751,1.1786866,fused
1627975488046,52.4684072,13.3341051,94.02766686063438,3.813,132.71416,1.1246909,fused
1627975489065,52.4683997,13.3341233,93.9023939616509,3.813,135.08243,1.1446539,fused
1627975491046,52.4683896,13.3341502,93.88656525734326,3.804,124.34203,1.1509453,fused
1627975493054,52.4683762,13.3341757,93.96215388844747,3.79,129.69048,1.141998,fused
1627975494087,52.4683675,13.3341878,93.81475487047875,3.79,130.03381,1.1575979,fused
1627975496027,52.4683587,13.3342192,93.58341691728361,3.79,122.80989,1.1189094,fused
1627975498091,52.4683464,13.3342473,94.1685644788354,3.79,132.00693,1.124657,fused
1627975500061,52.4683305,13.3342694,94.17986849168572,3.79,119.5817,1.1253042,fused
1627975501045,52.4683236,13.3342826,94.80462360806393,3.79,118.246475,1.1248841,fused
1627975503085,52.4683134,13.3343111,94.02646064886645,3.79,127.175766,1.0660796,fused
1627975504057,52.4683064,13.3343243,94.134252574903,3.79,128.45619,1.10453,fused
1627975506063,52.4682967,13.3343534,94.52313881520364,3.79,122.63634,1.1132003,fused
1627975507048,52.4682915,13.3343669,93.48650712166734,3.79,128.78018,1.1253242,fused
1627975509083,52.4682759,13.3343997,93.41625143032388,3.79,127.38326,1.1585122,fused
1627975511030,52.4682662,13.3344283,93.41964242887876,3.79,125.3164,1.1524819,fused
1627975512074,52.4682596,13.3344403,93.75959685549722,3.79,130.93745,1.1892533,fused
1627975514058,52.4682492,13.3344762,93.67608596979251,3.79,119.90488,1.2037249,fused
1627975515052,52.4682446,13.3344863,94.41101497144753,3.79,133.98894,1.203642,fused
1627975516036,52.4682373,13.3344979,93.90763967384083,3.79,138.15385,1.1335363,fused
1627975517047,52.4682318,13.3345073,94.09037206532898,3.79,137.60602,1.1282419,fused
1627975519082,52.4682222,13.3345419,94.02065423124232,3.79,111.388,1.1647623,fused
1627975520060,52.4682196,13.3345554,93.54027478034666,3.79,121.30938,1.2080108,fused
1627975521061,52.4682133,13.3345718,93.44733258745269,3.79,118.87945,1.1753033,fused
1627975523050,52.4682018,13.3345936,93.32609371141643,3.79,125.29314,1.156304,fused
1627975525032,52.4681882,13.3346166,92.49680371523185,3.79,122.13313,1.1406747,fused
1627975526056,52.4681834,13.3346303,93.29513460926444,3.79,116.60767,1.1552308,fused
1627975528052,52.4681747,13.3346606,92.81258206177051,3.79,111.57347,1.1549882,fused
1627975529044,52.4681693,13.3346789,92.61958382830936,3.79,120.75451,1.1941924,fused
1627975530034,52.4681638,13.3346895,92.45360298736414,3.79,117.39756,1.2039576,fused
1627975532032,52.4681552,13.3347222,92.29815254813566,3.79,125.10918,1.2297221,fused
1627975534050,52.468122,13.3347735,92.46880077464156,5.059,124.91388,1.228204,fused
1627975535048,52.4681113,13.3347909,92.15713892835184,5.925,124.53006,1.2121058,fused
1627975536483,52.4681029,13.3348186,93.34055890692657,6.823,122.468605,1.1931734,fused
1627975537765,52.4680977,13.33484,92.36759555534294,7.578,121.1188,1.185929,fused
1627975538894,52.468094,13.3348586,92.31154699727425,7.587,119.20604,1.1809545,fused
1627975540042,52.4680908,13.3348787,93.049397461319,7.676,116.21638,1.1686714,fused
1627975541031,52.4680913,13.3349063,93.35611021519739,7.695,103.5602,1.035024,fused
1627975542045,52.468094,13.3349252,92.90431356883462,7.632,96.77613,1.1259415,fused
1627975543139,52.4680952,13.3349494,93.40765743180948,7.5,93.98456,1.1709819,fused
1627975544266,52.4680917,13.3349827,92.97132606068638,7.29,93.28649,1.1853051,fused
1627975545549,52.46809,13.3350074,92.43368234857357,7.166,92.68175,1.1783612,fused
1627975546656,52.4680895,13.335027,92.00244815028051,7.158,91.595,1.1631296,fused
1627975547894,52.4680896,13.335048,91.46769118556554,7.397,89.96223,1.1626905,fused
1627975549032,52.4680989,13.3350702,92.15604454454031,7.737,87.11337,1.1616485,fused
1627975550377,52.468123,13.3350956,92.52390169362312,8.101,78.05679,1.0851333,fused
1627975551653,52.4681433,13.33511,93.00541073056861,8.259,67.76336,0.973548,fused
1627975552833,52.4681608,13.335118,92.93785434419321,8.149,57.394894,0.9140611,fused
1627975553955,52.4681774,13.3351301,92.96883088118166,7.765,48.947346,0.9092537,fused
1627975555104,52.4681899,13.3351383,93.52877229355023,7.319,44.068695,0.92246944,fused
1627975556386,52.468209,13.3351498,94.66038077990184,6.802,37.41043,0.96592116,fused
1627975557670,52.4682222,13.3351602,94.52753805438459,6.493,33.50773,0.98500514,fused
1627975559042,52.4682395,13.3351733,93.79942280767936,6.126,28.354115,0.9880851,fused
1627975560071,52.4682471,13.3351792,94.43200916417355,6.022,26.799992,0.99877286,fused
1627975561313,52.4682678,13.3351832,94.66773197999304,5.881,19.883858,1.007771,fused
1627975562536,52.4682845,13.3351861,96.05026974801514,5.807,16.500845,1.0316476,fused
1627975563635,52.4683007,13.3351896,95.93138800021181,5.68,13.777679,1.0506212,fused
1627975564889,52.4683117,13.3351931,95.78937556588899,5.577,11.86478,1.0355828,fused
1627975566071,52.4683241,13.3351934,96.54801609192138,5.45,10.2418785,1.0394298,fused
1627975567896,52.4683449,13.3351922,96.71597983417259,5.431,8.2062645,1.0631522,fused
1627975569011,52.4683594,13.335196,96.3766918430026,5.47,7.0920672,1.074567,fused
1627975570063,52.4683689,13.3352001,97.96380596594983,5.537,7.1256022,1.074662,fused
1627975571448,52.4683872,13.3352004,98.194730086363,5.542,6.598015,1.1027484,fused
1627975572621,52.4684012,13.3351979,99.22917135452148,5.487,5.4749675,1.1127753,fused
1627975573815,52.4684124,13.3351975,98.51742584309763,5.348,4.098846,1.1079772,fused
1627975575043,52.4684206,13.335195,98.47898280958664,5.296,3.08956,1.1100051,fused
1627975577048,52.46844,13.3351907,100.6114014171619,5.253,2.2272243,1.1337291,fused
1627975578031,52.4684498,13.3351906,101.00489070344294,5.242,2.1460388,1.1355112,fused
1627975579460,52.4684498,13.3351938,101.4267322141784,5.329,0.013222821,1.037499,fused
1627975580796,52.4684478,13.3351954,100.50673360519873,5.448,4.1411026E-6,0.82841545,fused
1627975581939,52.4684508,13.3351932,101.32569153090242,5.537,0.08788824,0.8164257,fused
1627975583040,52.4684581,13.3351923,103.06543512503588,5.592,0.15857124,0.8839007,fused
1627975584257,52.4684748,13.3351934,102.82777058584337,5.572,0.03295659,0.95541096,fused
1627975585352,52.4684869,13.3351913,102.81392269589121,5.55,0.012711239,1.0128157,fused
1627975586614,52.4684993,13.3351906,104.10717677912658,5.491,359.90817,1.0392436,fused
1627975587774,52.4685121,13.3351919,104.11035997291793,5.421,0.027439432,1.0618023,fused
1627975589432,52.4685349,13.3351955,103.69536664283048,5.322,0.63172966,1.1098472,fused
1627975590610,52.46855,13.3351993,103.41493529530534,5.256,1.3754716,1.139691,fused
1627975591773,52.4685628,13.3351997,104.69110184561738,5.168,1.4943457,1.1569695,fused
1627975592933,52.4685746,13.335199,105.26867204375363,5.075,1.8424242,1.1664666,fused
1627975594094,52.4685919,13.335201,105.52654522038699,5.022,2.1889014,1.1833445,fused
1627975595291,52.4686029,13.3352008,105.4075340067152,5.054,2.0198338,1.181527,fused
1627975596556,52.4686139,13.3352019,105.87023320053095,5.123,1.6835129,1.1795598,fused
1627975597776,52.4686259,13.3352062,106.16011121786173,5.243,1.6183095,1.1806967,fused
1627975599054,52.4686442,13.3352159,105.732242318924,5.438,1.6963372,1.1912951,fused
1627975600674,52.468664,13.3352299,105.9086449454088,5.611,1.478382,1.1787851,fused
1627975601880,52.468677,13.335234,105.92899253841104,5.706,1.4566654,1.1744521,fused
1627975603045,52.4686902,13.3352359,106.79659479216973,5.758,1.6631151,1.1747477,fused
1627975604747,52.468711,13.3352412,110.21722773723323,5.708,1.7121634,1.172075,fused
1627975605934,52.4687213,13.3352432,109.48636249151478,5.675,1.3826603,1.1700774,fused
1627975607037,52.4687324,13.3352439,108.79437285898405,5.643,1.160194,1.1716781,fused
1627975609079,52.4687624,13.3352419,109.7117646480555,5.75,1.9147081,1.1777573,fused
1627975610515,52.4687819,13.3352379,109.44485196578773,5.867,1.3140421,1.1851107,fused
1627975611736,52.4687968,13.3352319,109.46370061749741,6.077,0.7088112,1.2016561,fused
1627975612897,52.4688138,13.3352228,109.16454878039242,6.294,0.5030119,1.2055418,fused
1627975614100,52.4688324,13.3352168,110.23445716334601,6.587,0.51622826,1.194054,fused
1627975615252,52.468843,13.335214,110.13238119637491,6.789,0.5454211,1.1875243,fused
1627975616377,52.468857,13.3352085,109.30339075045144,6.872,0.08245221,1.1837832,fused
1627975617656,52.4688716,13.3352019,109.77167487241513,6.9,359.66306,1.175463,fused
1627975618774,52.4688852,13.3351981,108.46794300061465,6.871,359.53293,1.1760913,fused
1627975620061,52.4688981,13.3351959,110.14169904903268,6.804,359.8078,1.1707764,fused
1627975622037,52.4689113,13.3352006,110.46491850409913,6.741,0.050130434,0.017346133,fused
1627975623094,52.468916,13.3352046,109.59915867806309,6.717,0.02307375,0.020016389,fused
1627975624569,52.4689153,13.335212,110.06548105677372,7.084,0.27360407,0.0061871344,fused
1627975625768,52.4689107,13.3352182,110.13297658917041,7.248,0.9988969,0.08139337,fused
1627975627029,52.4689199,13.3352153,109.46465642379697,7.457,1.2234019,0.32386813,fused
1627975628147,52.468932,13.3352117,108.70133107962387,7.912,1.1595097,0.55320007,fused
1627975629317,52.4689438,13.3352117,109.89227384469218,8.304,0.42884505,0.7002447,fused
1627975630533,52.4689535,13.3352144,109.51256687711775,8.543,0.4297446,0.78063375,fused
1627975631654,52.4689647,13.3352168,109.7176473541779,8.731,0.95424145,0.85246825,fused
1627975632894,52.4689799,13.3352183,109.86708457863658,8.88,1.0018597,0.90490043,fused
1627975634668,52.469,13.3352189,109.22044111601762,9.048,1.0384753,0.97389984,fused
1627975635793,52.469006,13.3352206,109.4510605065302,9.09,1.0908073,1.0013179,fused
1627975636938,52.4690157,13.3352224,108.83017133382249,9.103,0.8516813,1.0296146,fused
1627975638169,52.4690269,13.3352253,109.09796853634376,9.082,0.70062995,1.0694942,fused
1627975639332,52.4690478,13.3352293,109.66597046835636,8.862,1.3653682,1.2150362,fused
1627975640514,52.4690655,13.3352314,109.45429329518316,8.489,1.1555803,1.180583,fused
1627975641655,52.4690785,13.3352312,109.28966878082981,8.151,0.4477785,1.1511604,fused
1627975642849,52.4690891,13.3352317,109.33287227253149,7.86,1.5416378,1.1716056,fused
1627975644516,52.4690971,13.3352313,110.34500562350648,7.319,0.5899856,1.4590948,fused
1627975645714,52.469105,13.3352313,110.72442656168617,7.277,1.8408191,1.2855703,fused
1627975646875,52.4691141,13.3352306,111.86523929686284,7.227,0.5482371,1.17363,fused
1627975648049,52.4691259,13.33523,111.57729998100942,7.111,0.6522294,1.1777623,fused
1627975649195,52.4691399,13.3352301,112.7489358096525,6.892,0.95444,1.1635035,fused
1627975650253,52.469152,13.3352319,113.83781999739602,6.908,2.5022893,1.1723799,fused
1627975651495,52.4691711,13.3352327,114.06596094566481,6.874,1.8192828,1.1842053,fused
1627975652670,52.4691903,13.3352326,114.75327389700473,6.772,357.9023,1.1476803,fused
1627975655027,52.4692179,13.3352301,112.99251133035229,6.38,354.9262,1.144882,fused
1627975656069,52.4692264,13.3352283,112.05930098587756,6.242,354.16916,1.1688036,fused
1627975657060,52.4692329,13.3352262,110.08318830600983,6.134,353.10458,1.1385103,fused
1627975658055,52.4692344,13.3352255,108.47650065572654,5.899,354.21048,1.0095695,fused
1627975660043,52.4692315,13.3352248,107.59634155915589,5.879,354.39166,0.77511466,fused
1627975661071,52.4692284,13.3352242,106.99031877024466,5.742,353.5411,0.7355761,fused
1627975662050,52.4692266,13.3352228,107.42324119078806,5.56,352.60272,0.71254617,fused
1627975663635,52.4692234,13.3352213,106.6640484516769,4.928,350.7747,0.6832537,fused
1627975664982,52.4692216,13.3352171,106.38461718141976,4.536,347.93256,0.6611988,fused
1627975666036,52.4692235,13.3352153,104.72140806918037,4.384,346.74918,0.6471146,fused
1627975668063,52.4692276,13.3352124,103.41282822043075,4.506,344.65256,0.64693826,fused
1627975669450,52.4692303,13.3352072,102.88855861755692,4.972,326.36517,0.75240904,fused
1627975670835,52.4692351,13.3351966,101.80815951780514,5.349,313.11304,0.7571053,fused
1627975672067,52.4692376,13.3351878,100.23591650568235,5.681,308.43152,0.84300375,fused
1627975673053,52.4692382,13.3351816,99.96757146771246,5.893,306.42102,0.8009207,fused
1627975674734,52.4692393,13.3351507,98.63818504532013,6.506,276.9797,0.80844736,fused
1627975676039,52.4692373,13.335127,98.68017900037431,6.968,266.5845,0.8209072,fused
1627975677351,52.469234,13.3351053,98.13916838113373,7.454,258.97107,0.7479905,fused
1627975678779,52.4692313,13.3350903,98.45472960223461,7.984,258.401,0.7774425,fused
1627975680046,52.4692262,13.3350222,97.46935926223868,8.289,258.54865,0.9669989,fused
1627975681330,52.469222,13.3349853,96.51892919099629,8.709,258.12186,0.988669,fused
1627975682594,52.4692195,13.334963,97.25981554786681,8.719,259.25067,0.8271196,fused
1627975683817,52.469229,13.3349448,96.6502029315933,8.325,251.47704,0.87371725,fused
1627975685070,52.4692348,13.3349213,96.57856323402453,6.983,233.77397,0.93243474,fused
1627975686097,52.4692327,13.3349067,96.0863202579397,6.234,237.65843,0.91931504,fused
1627975688035,52.4692332,13.334868,94.74681226855273,4.632,249.66632,1.0007952,fused
1627975689054,52.4692317,13.3348424,95.05321260290017,4.059,248.98367,0.94330287,fused
1627975691061,52.4692292,13.3348107,93.17384751524247,4.059,247.93378,0.93402904,fused
1627975692079,52.4692274,13.3347954,93.90301219565617,4.059,244.35547,0.99899155,fused
1627975693990,52.4692229,13.3347692,93.98223767127394,4.058,248.98555,0.93998486,fused
1627975695054,52.4692197,13.334742,93.85983143733053,4.058,262.5491,0.9686591,fused
1627975697025,52.4692118,13.3347125,92.95916144471998,4.04,256.66476,1.0367714,fused
1627975699032,52.4692064,13.334688,92.78484167271439,4.105,246.05215,0.99975646,fused
1627975700057,52.4691992,13.3346736,92.91648055411304,4.086,233.40092,0.99176323,fused
1627975701072,52.4691968,13.3346591,93.42069234363497,4.128,258.54312,1.009468,fused
1627975703030,52.4691986,13.3346309,93.2095335971513,4.128,255.24869,0.92338216,fused
1627975704087,52.4691969,13.3346191,92.90351343806348,3.79,255.14793,0.9498649,fused
1627975705101,52.4691943,13.3346007,92.3398091586439,3.79,247.70625,0.95109236,fused
1627975706049,52.469193,13.3345895,93.24717962667232,3.79,263.9881,0.964743,fused
1627975708028,52.4691896,13.3345586,93.67315858248577,3.79,257.62796,0.9961807,fused
1627975709042,52.4691884,13.3345413,93.34490662378566,3.79,240.00735,1.0538372,fused
1627975710089,52.469184,13.3345248,93.86378266657601,3.79,236.04451,1.0359076,fused
1627975712040,52.4691813,13.3344987,93.82379672610102,3.79,257.29602,0.94422835,fused
1627975714073,52.4691828,13.3344697,94.52509042994762,3.79,263.12332,0.9165226,fused
1627975716094,52.4691769,13.3344389,95.35236520964646,3.79,250.96506,0.94154155,fused
1627975718038,52.469174,13.334404,94.83855931122513,3.79,281.38867,1.1904368,fused
1627975719054,52.4691764,13.3343833,95.16797532220133,3.79,273.07074,1.0644181,fused
1627975721040,52.4691707,13.3343505,95.10046053848599,3.79,244.68828,0.8897259,fused
1627975723035,52.4691619,13.3343214,94.42956360437563,3.804,258.97534,0.93811566,fused
1627975724034,52.4691593,13.3343039,94.70966179909303,3.805,254.25626,0.9635561,fused
1627975725039,52.4691559,13.3342847,94.45855043642713,3.804,256.94095,0.9685987,fused
1627975727036,52.4691516,13.3342528,94.36116067261533,3.804,253.75056,0.9433195,fused
1627975729042,52.4691447,13.334218,95.49332230180032,3.79,258.05756,0.97611785,fused
1627975731047,52.4691389,13.3341834,96.09995666169964,3.79,259.15558,0.96218294,fused
1627975732064,52.4691365,13.3341687,96.16443348677362,3.79,253.6749,0.9682842,fused
1627975734056,52.46913,13.3341356,95.76619954349137,3.79,264.75043,0.9406121,fused
1627975736029,52.4691254,13.334105,97.9550056302633,3.79,281.2036,0.9849282,fused
1627975737071,52.469126,13.3340898,97.69997730671905,3.79,273.85837,0.9974375,fused
1627975738040,52.4691247,13.3340716,97.40507954237671,3.79,260.71536,0.93635154,fused
1627975740030,52.4691174,13.3340414,98.00688475264828,3.79,244.79393,0.9795579,fused
1627975741033,52.4691146,13.3340259,98.4294286781467,3.79,262.4158,1.0093533,fused
1627975742084,52.4691153,13.3340117,97.77459592862893,3.79,267.66208,0.9525547,fused
1627975744029,52.4691173,13.3339804,96.73744434144808,5.68,287.6782,1.0342865,fused
1627975745071,52.469121,13.3339583,96.72142131577998,7.301,271.87192,1.0861601,fused
1627975747047,52.4691094,13.333924,96.22245617078603,9.115,241.88957,0.9691705,fused
1627975748048,52.4691054,13.3339085,96.6518538646752,9.935,240.00665,0.97180045,fused
1627975750034,52.4690957,13.3338726,97.11857215119866,9.935,243.92944,0.98998207,fused
1627975751084,52.4690955,13.3338576,97.11044164308076,9.935,241.82777,0.98727965,fused
1627975753058,52.4690886,13.3338279,94.81356336417356,9.935,248.20477,1.0259799,fused
1627975754078,52.4690883,13.3338111,95.07625676738272,9.935,269.3084,1.0795914,fused
1627975756054,52.4690908,13.333774,93.92661681286054,9.935,264.9586,0.9722009,fused
1627975757068,52.469089,13.3337611,93.44577313047903,9.935,258.65552,0.9652134,fused
1627975759025,52.4690818,13.3337319,92.91963173665025,9.935,251.12883,1.0239065,fused
1627975760057,52.4690777,13.3337142,92.25328795295127,9.935,251.46695,1.0089101,fused
1627975761055,52.4690743,13.3336992,93.01032564117061,9.935,261.26556,1.0192494,fused
1627975763033,52.4690721,13.3336702,92.44278676869067,9.935,272.22784,0.9545953,fused
1627975765053,52.4690731,13.3336319,91.2190100475629,9.935,263.0454,1.0097175,fused
1627975766055,52.4690698,13.333619,92.69188881935878,9.935,252.40523,0.9838588,fused
1627975768025,52.4690603,13.3335931,91.05545747710318,9.935,242.02986,0.99760294,fused
1627975769054,52.4690551,13.3335803,91.31534746488671,9.935,245.0253,1.0166705,fused
1627975771086,52.4690435,13.3335507,91.94449196083106,9.935,245.91527,1.0786252,fused
1627975772044,52.4690418,13.3335325,93.00980005631988,9.935,272.27637,1.017418,fused
1627975773969,52.4690427,13.3335013,93.02336989320008,10.139,254.64442,1.0458723,fused
1627975775071,52.4690449,13.3334804,92.90516676505696,10.828,253.4043,1.0255283,fused
1627975776427,52.4690418,13.3334581,92.59671695103131,11.159,249.52475,0.9966726,fused
1627975777664,52.4690361,13.3334406,92.0567533746623,11.538,246.66014,0.99092203,fused
1627975778919,52.4690299,13.3334237,92.2194831851514,11.937,244.238,0.99117833,fused
1627975780029,52.4690242,13.3334099,92.97859807818062,11.922,242.48448,0.99090636,fused
1627975781940,52.4689866,13.3333703,92.86515615204812,12.486,205.075,0.27999997,fused
1627975783056,52.4689795,13.3333545,93.40288011581315,12.284,238.02202,0.959144,fused
1627975784369,52.4689745,13.3333391,92.3621006107117,11.916,239.93213,0.9768746,fused
1627975785576,52.4689732,13.333317,92.56741614488665,11.438,242.91049,0.97091043,fused
1627975786855,52.4689751,13.3333013,91.70629052906558,10.849,247.64682,0.96395046,fused
1627975788044,52.4689769,13.3332882,91.13154236253051,10.709,250.19482,1.0053786,fused
1627975789058,52.4689767,13.3332783,91.18800210435371,10.186,251.5788,1.0417489,fused
1627975790626,52.4689761,13.3332545,92.56199284623962,9.277,252.8386,1.0385327,fused
1627975791783,52.4689751,13.3332471,92.59742545054364,8.717,253.28732,1.0058012,fused
1627975793079,52.4689735,13.3332431,92.41901240414612,8.079,252.9681,0.9621928,fused
1627975794039,52.4689718,13.3332402,92.25076436288946,7.661,251.28624,0.9859232,fused
1627975795662,52.4689637,13.3332293,92.65338855921114,7.358,248.15582,0.98209405,fused
1627975796898,52.4689595,13.3332273,92.8487298573398,7.418,243.40208,0.9012626,fused
1627975798071,52.4689551,13.3332256,92.86401797163002,7.626,237.37073,0.8299872,fused
1627975800062,52.4689413,13.3332169,90.87557046802162,8.366,229.11395,0.7529893,fused
1627975802058,52.46892,13.3332277,90.55599245574642,9.011,181.02545,0.4904774,fused
1627975804034,52.4688899,13.3332317,89.44396258830076,9.312,159.48152,0.7966787,fused
1627975805077,52.468869,13.3332362,90.13662793796884,8.252,161.40588,0.8871776,fused
1627975806087,52.4688612,13.3332403,90.11767296165007,7.642,141.29704,0.8415812,fused
1627975807396,52.4688536,13.3332481,88.9811428718665,7.123,131.38966,0.955271,fused
1627975808795,52.4688493,13.3332565,88.12620087347761,6.763,128.5057,0.96260357,fused
1627975810049,52.4688432,13.333268,89.07268747978914,6.547,126.9021,1.0154874,fused
1627975811455,52.4688407,13.3332723,89.31784026198338,6.706,125.47893,0.9672724,fused
1627975812662,52.4688352,13.333283,89.0813326662933,6.848,129.03072,0.9409448,fused
1627975814029,52.4688282,13.3332972,89.10061811655359,7.078,129.78139,0.9389172,fused
1627975815050,52.4688195,13.3333116,88.75922104022565,7.56,130.20067,0.88498443,fused
1627975816066,52.4688144,13.3333176,89.36853116413343,8.117,128.8643,0.9254588,fused
1627975817097,52.4688095,13.3333274,89.36022610610902,8.705,123.58052,0.98794085,fused
1627975818449,52.4688034,13.3333421,89.7960647954297,9.322,121.1228,0.97039527,fused
1627975820051,52.4687769,13.3333604,90.23232393110081,9.741,125.942245,0.9614882,fused
1627975821052,52.4687688,13.3333662,91.1476139806651,9.951,131.99342,0.98052275,fused
1627975823056,52.4687546,13.333388,91.39100603818537,9.972,122.639786,1.030202,fused
1627975825039,52.4687446,13.3334207,92.02532136172054,9.935,124.40371,1.0668968,fused
1627975827066,52.4687305,13.3334499,93.34086717285655,9.525,123.07569,0.85858625,fused
1627975828043,52.4687236,13.3334582,93.77869741299932,8.179,126.39084,1.0033629,fused
1627975829719,52.468713,13.333472,93.59159788411374,6.431,118.24874,1.031319,fused
1627975831063,52.468706,13.3335013,91.60790151938852,4.243,108.132645,1.1179279,fused
1627975833064,52.4686956,13.3335352,91.82655298973401,3.803,117.58594,1.0490576,fused
1627975834710,52.4686857,13.333557,91.17815338205955,3.818,132.63725,1.1265386,fused
1627975836076,52.4686766,13.3335822,91.7666431568707,3.813,123.192184,1.06862,fused
1627975838089,52.4686656,13.3336069,92.14343681430907,3.812,123.59588,1.1025747,fused
1627975839720,52.4686563,13.3336262,92.4904606233149,3.816,125.89247,1.0535481,fused
1627975841090,52.4686465,13.333648,92.72312970355587,3.819,125.54862,1.0702434,fused
1627975842029,52.4686394,13.3336556,92.65357768653215,3.827,132.78627,1.0622022,fused
